{
  "name": "TinyGPSPlusMinus",
  "version": "1.0.0",
  "keywords": "gps,NMEA",
  "description": "Minimalistic version of Mikal Hart's TinyGPS++ at http://arduiniana.org",
  "repository":
  {
    "type": "git",
    "url": "https://gitlab.com/classified/TinyGPSPlusMinus.git"
  },
  "authors":
  [
    {
       "name": "Mikal Hart",
       "email": "mikal@arduniana.org",
       "url": "http://arduiniana.org",
       "maintainer": false
    },
    {
      "name": "Chris Hildebrandt",
      "email": "c.hildebrandt87@gmail.com",
      "maintainer": true
    }
  ],
  "frameworks": "arduino",
  "platforms": "*"
}
